TTC Delays - Anees' Website
…
subway_delay<- search_packages("TTC Subway Delay Data") %>% #First, looking for packages TTC Subway Delay data, need to specify this as there are more types of delay data that we will be selecting later on
  list_package_resources() %>% 
  filter(grepl('ttc-subway-delay-june-2019',name)) %>% 
  get_resource() %>% as_tibble()

bus_delay_year <- search_packages("TTC Bus Delay Data") %>% #First, looking for packages TTC Subway Delay data, need to specify this as there are more types of delay data that we will be selecting later on
  list_package_resources() %>% 
  filter(grepl('ttc-bus-delay-data-2019',name)) %>% 
  get_resource()

bus_delay <- bus_delay_year[['June 2019']]
bus_delay
## # A tibble: 5,232 x 10
##    `Report Date`       Route Time                Day   Location Incident Delay
##    <dttm>              <dbl> <dttm>              <chr> <chr>    <chr>    <dbl>
##  1 2019-06-01 00:00:00    84 1899-12-31 00:04:00 Satu~ Sheppar~ Emergen~    10
##  2 2019-06-01 00:00:00    29 1899-12-31 01:08:00 Satu~ Princes~ Mechani~     4
##  3 2019-06-01 00:00:00    29 1899-12-31 01:25:00 Satu~ Exhibit~ Utilize~     9
##  4 2019-06-01 00:00:00   118 1899-12-31 01:28:00 Satu~ Tanridg~ Emergen~    30
##  5 2019-06-01 00:00:00   161 1899-12-31 01:37:00 Satu~ Jane / ~ Investi~     1
##  6 2019-06-01 00:00:00   300 1899-12-31 02:00:00 Satu~ Termina~ General~    30
##  7 2019-06-01 00:00:00   300 1899-12-31 02:06:00 Satu~ Kipling~ Investi~    15
##  8 2019-06-01 00:00:00   339 1899-12-31 02:29:00 Satu~ Midland~ Diversi~   191
##  9 2019-06-01 00:00:00   320 1899-12-31 02:58:00 Satu~ Yonge a~ Investi~     3
## 10 2019-06-01 00:00:00   320 1899-12-31 03:05:00 Satu~ Yonge a~ Emergen~     4
## # ... with 5,222 more rows, and 3 more variables: Gap <dbl>, Direction <chr>,
## #   Vehicle <dbl>

streetcar_delay_year <- search_packages("TTC Streetcar Delay Data") %>% #First, looking for packages TTC Subway Delay data, need to specify this as there are more types of delay data that we will be selecting later on
  list_package_resources() %>% 
  filter(grepl('ttc-streetcar-delay-data-2019',name)) %>% 
  get_resource()

streetcar_delay <- streetcar_delay_year[["June 2019 "]]
streetcar_delay
## # A tibble: 929 x 10
##    `Report Date`       Route Time                Day   Location Incident Delay
##    <dttm>              <dbl> <dttm>              <chr> <chr>    <chr>    <dbl>
##  1 2019-06-01 00:00:00   501 1899-12-31 00:27:00 Satu~ Queen a~ Held By     16
##  2 2019-06-01 00:00:00   510 1899-12-31 01:26:00 Satu~ Spadina~ Emergen~    11
##  3 2019-06-01 00:00:00   504 1899-12-31 08:33:00 Satu~ Roncesv~ Mechani~     5
##  4 2019-06-01 00:00:00   504 1899-12-31 09:24:00 Satu~ Bloor a~ Held By      4
##  5 2019-06-01 00:00:00   504 1899-12-31 09:36:00 Satu~ King an~ Held By      8
##  6 2019-06-01 00:00:00   511 1899-12-31 10:07:00 Satu~ Bathurs~ Diversi~    15
##  7 2019-06-01 00:00:00   511 1899-12-31 11:11:00 Satu~ Bathurs~ Mechani~     6
##  8 2019-06-01 00:00:00   506 1899-12-31 12:16:00 Satu~ MAIN ST~ Mechani~     6
##  9 2019-06-01 00:00:00   504 1899-12-31 13:25:00 Satu~ Dundas ~ Held By      6
## 10 2019-06-01 00:00:00   512 1899-12-31 15:14:00 Satu~ St Clai~ Investi~    27
## # ... with 919 more rows, and 3 more variables: Gap <dbl>, Direction <chr>,
## #   Vehicle <dbl>
…
